{
  "project_info": {
    "project_number": "155106133695",
    "project_id": "ebita-315614",
    "storage_bucket": "ebita-315614.appspot.com"
  },
  "client": [
    {
      "client_info": {
        "mobilesdk_app_id": "1:155106133695:android:6ececd0133c324892be80a",
        "android_client_info": {
          "package_name": "com.latinofuneral.bitacoras2020"
        }
      },
      "oauth_client": [
        {
          "client_id": "155106133695-f755j6elgtardvgkvjnldvik345gg8p7.apps.googleusercontent.com",
          "client_type": 1,
          "android_info": {
            "package_name": "com.latinofuneral.bitacoras2020",
            "certificate_hash": "99561ebbe4916de21a8b10d2bdc7223984fab50a"
          }
        },
        {
          "client_id": "155106133695-m3ovu3g4c02k1llkaod98s6emqaic3kk.apps.googleusercontent.com",
          "client_type": 1,
          "android_info": {
            "package_name": "com.latinofuneral.bitacoras2020",
            "certificate_hash": "e1a7511bdcc9beec1654fc39c2bf0b938bba90d2"
          }
        },
        {
          "client_id": "155106133695-bcue8drgb3soiphbvoq6d2are6cm5j3c.apps.googleusercontent.com",
          "client_type": 3
        }
      ],
      "api_key": [
        {
          "current_key": "AIzaSyCF0i7VOOQqI7P_ODwAZ7lezIz9IqttsRU"
        },
        {
          "current_key": "AIzaSyB1F6lPGIF7zWZP6FWi4Hh3kwSFKNuQhK8"
        }
      ],
      "services": {
        "appinvite_service": {
          "other_platform_oauth_client": [
            {
              "client_id": "155106133695-bcue8drgb3soiphbvoq6d2are6cm5j3c.apps.googleusercontent.com",
              "client_type": 3
            }
          ]
        }
      }
    },
    {
      "client_info": {
        "mobilesdk_app_id": "1:155106133695:android:28524a77e39d20682be80a",
        "android_client_info": {
          "package_name": "com.latinofuneral.bitacoras2020Acapulco"
        }
      },
      "oauth_client": [
        {
          "client_id": "155106133695-6u59ojnv5rrcktpai0il6dt3160hleo0.apps.googleusercontent.com",
          "client_type": 1,
          "android_info": {
            "package_name": "com.latinofuneral.bitacoras2020Acapulco",
            "certificate_hash": "859ad095ff4ffefdc2d49d56a5e975e164a5a677"
          }
        },
        {
          "client_id": "155106133695-bcue8drgb3soiphbvoq6d2are6cm5j3c.apps.googleusercontent.com",
          "client_type": 3
        }
      ],
      "api_key": [
        {
          "current_key": "AIzaSyCF0i7VOOQqI7P_ODwAZ7lezIz9IqttsRU"
        },
        {
          "current_key": "AIzaSyB1F6lPGIF7zWZP6FWi4Hh3kwSFKNuQhK8"
        }
      ],
      "services": {
        "appinvite_service": {
          "other_platform_oauth_client": [
            {
              "client_id": "155106133695-bcue8drgb3soiphbvoq6d2are6cm5j3c.apps.googleusercontent.com",
              "client_type": 3
            }
          ]
        }
      }
    },
    {
      "client_info": {
        "mobilesdk_app_id": "1:155106133695:android:ed22dba01549bf182be80a",
        "android_client_info": {
          "package_name": "com.latinofuneral.bitacoras2020Cuernavaca"
        }
      },
      "oauth_client": [
        {
          "client_id": "155106133695-lalmdnkd4gab32hg9tfh6pivfmi8i0b3.apps.googleusercontent.com",
          "client_type": 1,
          "android_info": {
            "package_name": "com.latinofuneral.bitacoras2020Cuernavaca",
            "certificate_hash": "859ad095ff4ffefdc2d49d56a5e975e164a5a677"
          }
        },
        {
          "client_id": "155106133695-bcue8drgb3soiphbvoq6d2are6cm5j3c.apps.googleusercontent.com",
          "client_type": 3
        }
      ],
      "api_key": [
        {
          "current_key": "AIzaSyCF0i7VOOQqI7P_ODwAZ7lezIz9IqttsRU"
        },
        {
          "current_key": "AIzaSyB1F6lPGIF7zWZP6FWi4Hh3kwSFKNuQhK8"
        }
      ],
      "services": {
        "appinvite_service": {
          "other_platform_oauth_client": [
            {
              "client_id": "155106133695-bcue8drgb3soiphbvoq6d2are6cm5j3c.apps.googleusercontent.com",
              "client_type": 3
            }
          ]
        }
      }
    },
    {
      "client_info": {
        "mobilesdk_app_id": "1:155106133695:android:17df29137556785d2be80a",
        "android_client_info": {
          "package_name": "com.latinofuneral.bitacoras2020Saltillo"
        }
      },
      "oauth_client": [
        {
          "client_id": "155106133695-7uead690kfmo0chdj5j6tohpkq37eq0j.apps.googleusercontent.com",
          "client_type": 1,
          "android_info": {
            "package_name": "com.latinofuneral.bitacoras2020Saltillo",
            "certificate_hash": "859ad095ff4ffefdc2d49d56a5e975e164a5a677"
          }
        },
        {
          "client_id": "155106133695-bcue8drgb3soiphbvoq6d2are6cm5j3c.apps.googleusercontent.com",
          "client_type": 3
        }
      ],
      "api_key": [
        {
          "current_key": "AIzaSyCF0i7VOOQqI7P_ODwAZ7lezIz9IqttsRU"
        },
        {
          "current_key": "AIzaSyB1F6lPGIF7zWZP6FWi4Hh3kwSFKNuQhK8"
        }
      ],
      "services": {
        "appinvite_service": {
          "other_platform_oauth_client": [
            {
              "client_id": "155106133695-bcue8drgb3soiphbvoq6d2are6cm5j3c.apps.googleusercontent.com",
              "client_type": 3
            }
          ]
        }
      }
    },
    {
      "client_info": {
        "mobilesdk_app_id": "1:155106133695:android:d26e911d6e6a26dc2be80a",
        "android_client_info": {
          "package_name": "com.latinofuneral.bitacorasToluca"
        }
      },
      "oauth_client": [
        {
          "client_id": "155106133695-4606h5q26bglfijok0pgic05si6e0ptj.apps.googleusercontent.com",
          "client_type": 1,
          "android_info": {
            "package_name": "com.latinofuneral.bitacorasToluca",
            "certificate_hash": "55642197f087da07da3d833a0b9fd16c7548d04e"
          }
        },
        {
          "client_id": "155106133695-bcue8drgb3soiphbvoq6d2are6cm5j3c.apps.googleusercontent.com",
          "client_type": 3
        }
      ],
      "api_key": [
        {
          "current_key": "AIzaSyCF0i7VOOQqI7P_ODwAZ7lezIz9IqttsRU"
        },
        {
          "current_key": "AIzaSyB1F6lPGIF7zWZP6FWi4Hh3kwSFKNuQhK8"
        }
      ],
      "services": {
        "appinvite_service": {
          "other_platform_oauth_client": [
            {
              "client_id": "155106133695-bcue8drgb3soiphbvoq6d2are6cm5j3c.apps.googleusercontent.com",
              "client_type": 3
            }
          ]
        }
      }
    }
  ],
  "configuration_version": "1"
}